(footprint "Logo_Front_10mm" (version 20211014) (generator pcbnew)
  locked (layer "F.Cu")
  (tedit 0)
  (attr through_hole)
  (fp_text reference "VAL" (at 0 0) (layer "F.SilkS") hide
    (effects (font (size 0.381 0.381) (thickness 0.127)))
    (tstamp 6a1be517-10cc-40fb-a87d-dae4e7ba7c55)
  )
  (fp_text value "REF" (at 0 0) (layer "F.SilkS") hide
    (effects (font (size 0.381 0.381) (thickness 0.127)))
    (tstamp 7b3fe852-ed60-4c9b-a0ba-aa3b330c7d71)
  )
  (fp_poly (pts
      (xy 5.78104 3.6322)
      (xy 5.77088 3.63474)
      (xy 5.7277 3.63474)
      (xy 5.65404 3.63474)
      (xy 5.55498 3.6322)
      (xy 5.42544 3.62966)
      (xy 5.27304 3.62458)
      (xy 5.09778 3.6195)
      (xy 4.89712 3.61188)
      (xy 4.68122 3.60426)
      (xy 4.58724 3.60172)
      (xy 4.46024 3.59664)
      (xy 4.30784 3.5941)
      (xy 4.1275 3.59156)
      (xy 3.9243 3.58902)
      (xy 3.70586 3.58648)
      (xy 3.4671 3.58394)
      (xy 3.21818 3.5814)
      (xy 2.9591 3.5814)
      (xy 2.69494 3.5814)
      (xy 2.42824 3.5814)
      (xy 2.159 3.5814)
      (xy 1.89484 3.5814)
      (xy 1.63576 3.5814)
      (xy 1.38684 3.58394)
      (xy 1.15062 3.58394)
      (xy 0.92964 3.58648)
      (xy 0.72898 3.58902)
      (xy 0.54864 3.59156)
      (xy 0.39624 3.5941)
      (xy 0.26924 3.59918)
      (xy 0.2032 3.60172)
      (xy -0.4191 3.6322)
      (xy -1.01092 3.66776)
      (xy -1.57988 3.70586)
      (xy -2.1336 3.74904)
      (xy -2.67716 3.79984)
      (xy -3.2131 3.85572)
      (xy -3.75158 3.91668)
      (xy -4.29514 3.9878)
      (xy -4.84886 4.064)
      (xy -5.4229 4.15036)
      (xy -5.51688 4.1656)
      (xy -5.63372 4.18338)
      (xy -5.74294 4.19862)
      (xy -5.83438 4.21132)
      (xy -5.9055 4.22148)
      (xy -5.95376 4.2291)
      (xy -5.97408 4.2291)
      (xy -5.97154 4.22402)
      (xy -5.94614 4.21132)
      (xy -5.89788 4.19608)
      (xy -5.78612 4.16306)
      (xy -5.64642 4.12496)
      (xy -5.47878 4.08178)
      (xy -5.29336 4.03606)
      (xy -5.09016 3.9878)
      (xy -4.8768 3.93954)
      (xy -4.65328 3.88874)
      (xy -4.42976 3.84048)
      (xy -4.2037 3.79476)
      (xy -3.98526 3.75158)
      (xy -3.89382 3.7338)
      (xy -3.41884 3.64744)
      (xy -2.91592 3.56362)
      (xy -2.38506 3.48234)
      (xy -1.83642 3.40614)
      (xy -1.26746 3.33248)
      (xy -0.68834 3.2639)
      (xy -0.09906 3.19786)
      (xy 0.4953 3.13944)
      (xy 1.08712 3.08356)
      (xy 1.6764 3.0353)
      (xy 2.25806 2.99466)
      (xy 2.82702 2.96164)
      (xy 3.38074 2.9337)
      (xy 3.78714 2.91846)
      (xy 4.14782 2.90576)
      (xy 4.20116 2.95656)
      (xy 4.30022 3.0353)
      (xy 4.42976 3.11404)
      (xy 4.58978 3.19786)
      (xy 4.78028 3.28422)
      (xy 4.99618 3.37058)
      (xy 5.24256 3.45948)
      (xy 5.45846 3.52806)
      (xy 5.55498 3.55854)
      (xy 5.64134 3.58648)
      (xy 5.70992 3.60934)
      (xy 5.75818 3.62458)
      (xy 5.78104 3.6322)
    ) (layer "F.SilkS") (width 0.00254) (fill solid) (tstamp 15f618db-524b-4c2a-b3e1-9d6e47453d9c))
  (fp_poly (pts
      (xy -4.00812 -2.8067)
      (xy -4.13512 -2.67716)
      (xy -4.22402 -2.57556)
      (xy -4.318 -2.45364)
      (xy -4.40944 -2.32156)
      (xy -4.48818 -2.19202)
      (xy -4.5212 -2.12852)
      (xy -4.55422 -2.06756)
      (xy -4.57454 -2.03708)
      (xy -4.58216 -2.03708)
      (xy -4.57962 -2.0701)
      (xy -4.57708 -2.07772)
      (xy -4.55676 -2.1463)
      (xy -4.52882 -2.23266)
      (xy -4.49326 -2.32918)
      (xy -4.45516 -2.4257)
      (xy -4.4196 -2.50698)
      (xy -4.40944 -2.52984)
      (xy -4.3815 -2.58318)
      (xy -4.34086 -2.64922)
      (xy -4.29514 -2.72034)
      (xy -4.24688 -2.79146)
      (xy -4.2037 -2.85496)
      (xy -4.1656 -2.90322)
      (xy -4.13766 -2.93116)
      (xy -4.13512 -2.9337)
      (xy -4.11734 -2.92608)
      (xy -4.08686 -2.90068)
      (xy -4.064 -2.87528)
      (xy -4.00812 -2.8067)
    ) (layer "F.SilkS") (width 0.00254) (fill solid) (tstamp 1f86010a-4cd3-43d9-9446-293fed6f20dd))
  (fp_poly (pts
      (xy 6.01218 0.02032)
      (xy 6.00456 0.09398)
      (xy 5.97662 0.20066)
      (xy 5.91566 0.30734)
      (xy 5.8293 0.41656)
      (xy 5.71754 0.52324)
      (xy 5.58292 0.62484)
      (xy 5.42544 0.71882)
      (xy 5.3086 0.77724)
      (xy 5.20954 0.82042)
      (xy 5.08508 0.87122)
      (xy 4.94284 0.92456)
      (xy 4.79044 0.9779)
      (xy 4.6355 1.03124)
      (xy 4.48564 1.0795)
      (xy 4.42468 1.09728)
      (xy 4.34086 1.12522)
      (xy 4.26466 1.14808)
      (xy 4.20878 1.16332)
      (xy 4.17576 1.17348)
      (xy 4.17068 1.17602)
      (xy 4.15798 1.19634)
      (xy 4.14528 1.2446)
      (xy 4.13004 1.3208)
      (xy 4.1148 1.41478)
      (xy 4.1021 1.52908)
      (xy 4.08686 1.65354)
      (xy 4.0767 1.78816)
      (xy 4.064 1.92532)
      (xy 4.05638 2.06248)
      (xy 4.0513 2.1971)
      (xy 4.0513 2.20472)
      (xy 4.04622 2.31648)
      (xy 4.04114 2.4003)
      (xy 4.0386 2.45618)
      (xy 4.03352 2.49428)
      (xy 4.0259 2.5146)
      (xy 4.01574 2.52222)
      (xy 4.0132 2.52222)
      (xy 3.98526 2.52476)
      (xy 3.92938 2.5273)
      (xy 3.84556 2.53492)
      (xy 3.73888 2.54508)
      (xy 3.61442 2.55778)
      (xy 3.47218 2.57048)
      (xy 3.31978 2.58572)
      (xy 3.15722 2.60096)
      (xy 2.98704 2.61874)
      (xy 2.85242 2.63144)
      (xy 2.34188 2.68478)
      (xy 1.8415 2.73812)
      (xy 1.35382 2.79146)
      (xy 0.88138 2.8448)
      (xy 0.42418 2.89814)
      (xy 0.24384 2.921)
      (xy 0.24384 -3.03784)
      (xy 0.22098 -3.04292)
      (xy 0.17272 -3.05308)
      (xy 0.10414 -3.06832)
      (xy 0.08128 -3.07086)
      (xy -0.08382 -3.10388)
      (xy -0.23114 -3.13944)
      (xy -0.37338 -3.18262)
      (xy -0.52324 -3.23596)
      (xy -0.6858 -3.302)
      (xy -0.77978 -3.34264)
      (xy -0.85344 -3.37058)
      (xy -0.90932 -3.3909)
      (xy -0.95758 -3.40106)
      (xy -1.00584 -3.40868)
      (xy -1.06426 -3.41376)
      (xy -1.13284 -3.4163)
      (xy -1.27254 -3.4163)
      (xy -1.397 -3.40614)
      (xy -1.4859 -3.39344)
      (xy -1.64846 -3.36296)
      (xy -1.45542 -3.32232)
      (xy -1.30302 -3.2893)
      (xy -1.17602 -3.25628)
      (xy -1.06172 -3.22072)
      (xy -0.94742 -3.175)
      (xy -0.85598 -3.13436)
      (xy -0.6858 -3.05562)
      (xy -0.254 -3.04546)
      (xy -0.13208 -3.04292)
      (xy -0.02032 -3.04038)
      (xy 0.07874 -3.03784)
      (xy 0.15748 -3.03784)
      (xy 0.21336 -3.0353)
      (xy 0.23622 -3.0353)
      (xy 0.24384 -3.03784)
      (xy 0.24384 2.921)
      (xy -0.0127 2.95148)
      (xy -0.42672 3.00482)
      (xy -0.82042 3.05816)
      (xy -1.18618 3.10896)
      (xy -1.52654 3.15722)
      (xy -1.83642 3.20548)
      (xy -2.11328 3.2512)
      (xy -2.11582 3.2512)
      (xy -2.55016 3.3274)
      (xy -3.00228 3.4163)
      (xy -3.46202 3.51282)
      (xy -3.9243 3.61442)
      (xy -4.3815 3.7211)
      (xy -4.826 3.83032)
      (xy -5.24764 3.94208)
      (xy -5.48894 4.00812)
      (xy -5.59054 4.03606)
      (xy -5.68198 4.06146)
      (xy -5.75564 4.07924)
      (xy -5.80898 4.09194)
      (xy -5.83438 4.09702)
      (xy -5.83692 4.09448)
      (xy -5.82168 4.07924)
      (xy -5.78866 4.04876)
      (xy -5.7404 4.00812)
      (xy -5.7277 3.99796)
      (xy -5.59308 3.8735)
      (xy -5.46862 3.7338)
      (xy -5.35686 3.58394)
      (xy -5.26796 3.43154)
      (xy -5.21208 3.31216)
      (xy -5.18668 3.2385)
      (xy -5.16636 3.15722)
      (xy -5.14858 3.07086)
      (xy -5.13588 2.99466)
      (xy -5.12826 2.93116)
      (xy -5.13334 2.89052)
      (xy -5.15366 2.87274)
      (xy -5.19684 2.8575)
      (xy -5.21462 2.85242)
      (xy -5.32638 2.8194)
      (xy -5.43306 2.7559)
      (xy -5.52704 2.667)
      (xy -5.60832 2.55778)
      (xy -5.67436 2.43332)
      (xy -5.72008 2.29616)
      (xy -5.74294 2.15138)
      (xy -5.74548 2.10312)
      (xy -5.74294 2.03962)
      (xy -5.7404 1.98628)
      (xy -5.73786 1.95834)
      (xy -5.73532 1.9558)
      (xy -5.715 1.94564)
      (xy -5.66928 1.9304)
      (xy -5.6007 1.90754)
      (xy -5.51434 1.8796)
      (xy -5.41782 1.84912)
      (xy -5.3975 1.84404)
      (xy -5.14604 1.7653)
      (xy -4.90982 1.68402)
      (xy -4.69138 1.6002)
      (xy -4.49326 1.51892)
      (xy -4.31546 1.43764)
      (xy -4.1656 1.3589)
      (xy -4.04368 1.2827)
      (xy -4.01574 1.26238)
      (xy -3.92176 1.1811)
      (xy -3.83032 1.07696)
      (xy -3.73888 0.94488)
      (xy -3.64236 0.78486)
      (xy -3.54584 0.59944)
      (xy -3.39852 0.27686)
      (xy -3.27406 -0.04572)
      (xy -3.17754 -0.36322)
      (xy -3.10642 -0.6731)
      (xy -3.06324 -0.9525)
      (xy -3.05308 -1.08204)
      (xy -3.05816 -1.20142)
      (xy -3.07594 -1.31572)
      (xy -3.10896 -1.4351)
      (xy -3.15722 -1.56464)
      (xy -3.2258 -1.71196)
      (xy -3.2512 -1.76022)
      (xy -3.36804 -1.97358)
      (xy -3.51536 -2.20472)
      (xy -3.68554 -2.4511)
      (xy -3.88112 -2.71018)
      (xy -4.0005 -2.86004)
      (xy -4.05638 -2.92862)
      (xy -4.09448 -2.97942)
      (xy -4.11734 -3.02514)
      (xy -4.13004 -3.0734)
      (xy -4.13258 -3.13182)
      (xy -4.13258 -3.21056)
      (xy -4.13004 -3.26644)
      (xy -4.11226 -3.39598)
      (xy -4.06654 -3.53822)
      (xy -3.99796 -3.683)
      (xy -3.9116 -3.82524)
      (xy -3.81 -3.95478)
      (xy -3.76682 -4.00304)
      (xy -3.65506 -4.10718)
      (xy -3.54584 -4.1783)
      (xy -3.43916 -4.21894)
      (xy -3.3274 -4.23164)
      (xy -3.20802 -4.21386)
      (xy -3.08102 -4.17068)
      (xy -2.93116 -4.10972)
      (xy -2.78892 -4.05892)
      (xy -2.64668 -4.0132)
      (xy -2.49682 -3.9751)
      (xy -2.33426 -3.94208)
      (xy -2.15392 -3.90906)
      (xy -1.94564 -3.87858)
      (xy -1.86944 -3.86588)
      (xy -1.56718 -3.83286)
      (xy -1.25476 -3.81254)
      (xy -0.92456 -3.80492)
      (xy -0.56896 -3.81254)
      (xy -0.54102 -3.81254)
      (xy -0.3302 -3.81762)
      (xy -0.14732 -3.82016)
      (xy 0.0127 -3.81762)
      (xy 0.1524 -3.81)
      (xy 0.27686 -3.79476)
      (xy 0.3937 -3.77698)
      (xy 0.41402 -3.7719)
      (xy 0.6223 -3.71856)
      (xy 0.84582 -3.63728)
      (xy 1.0795 -3.5306)
      (xy 1.31572 -3.4036)
      (xy 1.55194 -3.25882)
      (xy 1.78562 -3.09626)
      (xy 2.01168 -2.921)
      (xy 2.2225 -2.73304)
      (xy 2.32664 -2.63144)
      (xy 2.40792 -2.55016)
      (xy 2.48158 -2.47396)
      (xy 2.5527 -2.39268)
      (xy 2.62382 -2.30886)
      (xy 2.70002 -2.21488)
      (xy 2.78384 -2.10566)
      (xy 2.88036 -1.97866)
      (xy 2.98958 -1.83134)
      (xy 3.01244 -1.80086)
      (xy 3.14198 -1.62814)
      (xy 3.26136 -1.48336)
      (xy 3.3782 -1.3589)
      (xy 3.4925 -1.25222)
      (xy 3.61442 -1.15824)
      (xy 3.74396 -1.07442)
      (xy 3.89382 -0.99568)
      (xy 4.06146 -0.91948)
      (xy 4.2164 -0.85598)
      (xy 4.48564 -0.74422)
      (xy 4.75742 -0.62738)
      (xy 5.01904 -0.508)
      (xy 5.2705 -0.38608)
      (xy 5.50164 -0.26924)
      (xy 5.71246 -0.15748)
      (xy 5.83692 -0.08382)
      (xy 6.01218 0.02032)
    ) (layer "F.SilkS") (width 0.00254) (fill solid) (tstamp a842cea0-7628-4aa8-ac63-3fdcfab69dd4))
  (fp_poly (pts
      (xy -5.50672 1.8415)
      (xy -5.51688 1.85674)
      (xy -5.5499 1.86944)
      (xy -5.5753 1.87706)
      (xy -5.62102 1.88722)
      (xy -5.65404 1.89484)
      (xy -5.65912 1.89484)
      (xy -5.66674 1.8796)
      (xy -5.6769 1.8415)
      (xy -5.68198 1.8161)
      (xy -5.69214 1.70942)
      (xy -5.69722 1.58242)
      (xy -5.69214 1.43764)
      (xy -5.68198 1.29032)
      (xy -5.6642 1.14808)
      (xy -5.64642 1.04902)
      (xy -5.62864 0.9652)
      (xy -5.61086 0.89154)
      (xy -5.59816 0.83312)
      (xy -5.588 0.80264)
      (xy -5.588 0.8001)
      (xy -5.58292 0.80772)
      (xy -5.58038 0.84582)
      (xy -5.57784 0.90932)
      (xy -5.5753 0.9906)
      (xy -5.57276 1.08712)
      (xy -5.57022 1.23444)
      (xy -5.5626 1.38176)
      (xy -5.55244 1.52146)
      (xy -5.5372 1.64846)
      (xy -5.52196 1.75514)
      (xy -5.50926 1.81356)
      (xy -5.50672 1.8415)
    ) (layer "F.SilkS") (width 0.00254) (fill solid) (tstamp bfd3d5d1-5305-4a5c-ba43-fd7490e2bee5))
)
