(footprint "SM0805" (version 20211014) (generator pcbnew)
  (layer "F.Cu")
  (tedit 5B216117)
  (attr smd)
  (fp_text reference "REF" (at 0 -1.5) (layer "F.SilkS") hide
    (effects (font (size 0.5 0.5) (thickness 0.125)))
    (tstamp 5a183ca8-3aeb-43ff-b515-80b406aade00)
  )
  (fp_text value "VAL" (at 0 0) (layer "F.SilkS") hide
    (effects (font (size 0.5 0.5) (thickness 0.125)))
    (tstamp 2a78269f-5283-4914-96bf-604b95e8eacc)
  )
  (fp_line (start -0.25 -0.75) (end 0.25 -0.75) (layer "F.SilkS") (width 0.25) (tstamp 5ce46d3d-fdd8-4da3-a55e-fbdf29d48123))
  (fp_line (start 0.25 0.75) (end -0.25 0.75) (layer "F.SilkS") (width 0.25) (tstamp f231041b-336c-4b9b-9f86-123f9dc12d97))
  (pad "1" smd rect (at -0.89 0) (size 1.02 1.78) (layers "F.Cu" "F.Paste" "F.Mask") (tstamp 64110ddc-ff1e-47ec-ab85-a28e7bae22d6))
  (pad "2" smd rect (at 0.89 0) (size 1.02 1.78) (layers "F.Cu" "F.Paste" "F.Mask") (tstamp efb75f69-02fb-417d-bf0d-4913c60de527))
  (model "smd/chip_cms.wrl"
    (offset (xyz 0 0 0))
    (scale (xyz 0.1 0.1 0.1))
    (rotate (xyz 0 0 0))
  )
)
